{
	"label": "Symbaroum Adventure Collection - Actors",
    "mapping": {
        "description": "system.details.biography.value",
        "race": "system.bio.race",
        "occupation": "system.bio.occupation",
        "manner": "system.bio.manner",
        "quote": "system.bio.quote",
        "shadow": "system.bio.shadow",
        "appearance": "system.bio.appearance",
        "tactics": "system.bio.tactics",
        "background": "system.bio.background",
        "personalGoal": "system.bio.personalGoal"
    },
	"entries": {
		"Alahara": {
			"name": "艾拉哈拉",
			"race": "替換兒",
			"occupation": "剝皮者",
			"manner": "咬著牙說話",
			"quote": "“我和我的愛人之間不會有任何障礙。”",
			"shadow": "黑色帶有散落的燈光，像一個寒冷而晴朗的夜空（腐化：3）",
			"appearance": "",
			"tactics": "<p>艾拉哈拉在攻擊人物時使用了他的[幻形]特質；對他來說，戈拉克的生存是最重要的。當戈拉克最終變身時，艾拉哈拉停止了戰鬥，在他失去的愛人的爪子下哭泣著走向死亡。</p>",
			"background": "",
			"personalGoal": ""
		},
		"Aldoro": {
			"name": "Aldoro",
			"race": "人類 (安珀利亞)",
			"occupation": "",
			"manner": "Proud, pious",
			"quote": "",
			"shadow": "Fiery red, like red gold under a  blazing sun",
			"appearance": "",
			"tactics": "After having surrounded himself and two  allies with a Blessed Shield, Aldoro discharges  the light of his soul at the enemy. If he ever lets  the burning light go out, it is to break the enemy’s  ongoing powers (Anathema) or to aid any wounded comrades by performing first aid.",
			"background": "<p>Not even thirty years of age, the theurg Aldoro was chosen to join the Whip of Prios as much for his ruthless stance against heretics as for his talents. He received the news with great joy; nothing could be more important than destroy- ing the diseased pests threatening to bring the kingdom and its people to ruin. After only two years he was awarded a place in the legendary Sister Losadra&rsquo;s unit, and they have now spent three successful years together.</p>",
			"personalGoal": ""
		},
		"Algaya": {
			"name": "Algaya",
			"race": "Human (barbarian)",
			"occupation": "",
			"manner": "Taciturn, monotonous voice",
			"quote": "",
			"shadow": "Kaleidoscopic, glossy green, like  sunlit foliage with waxy leaves.",
			"appearance": "",
			"tactics": "Algaya stands firm in combat, preferably  completely still in order to take full advantage of  her Thorn Cloak, and preferably amid allies who  then share its protection. Usually she begins  by trapping enemies with Entangling Vines and  filling them with hungry larvae; if she is forced to  prioritize, she always chooses to heal her allies  over inflicting damage.",
			"background": "<p>The greenweaver Algaya is close to sixty years old, and has seen her people transform from proud and free humans to divided, hunted beasts, which she blames entirely on the Ambrians and their Queen. They brought war, greed and ruthlessness with them from the south; they coerced the clans, and spread doubt and selfishness among the people of Davokar. Until six months ago she strived to reunite the Karits, and make clan Karohar whole and strong again. But her chieftain saw her mediation efforts as an act of treason, and she lost everything. But when she came to Ravenia, her hope was reig- nited. She sees in Duke Ynedar a leader seeking unity rather than division, reconciliation rather than war. That he is an Ambrian is irrelevant; Algaya is determined to protect him against all who mean him harm.</p>",
			"personalGoal": ""
		},
		"Ardetta": {
			"name": "Ardetta",
			"race": "Human",
			"occupation": "Treasurer",
			"manner": "Polite and tired",
			"quote": "",
			"shadow": "Silver with black lining",
			"appearance": null,
			"tactics": null,
			"background": "<p>Ardetta is Kastor&rsquo;s treasurer, and normally quite a lively person who enjoys playing dice, having a glass of port, and smoking her ceramic pipe. On the night of the murders she got more drunk than usual, gambling away her characteristic slouch hat. This saved her life, as it caused the assassins to target the hat&rsquo;s new owner instead. After witnessing the murder she was detected by one of the assassins who then threw a poisoned knife at her. She survived the poison, but will never be the same, with scales covering her chest and neck &ndash; still spreading &ndash; and a strange hunger for the wild.</p>",
			"personalGoal": ""
		},
		"Artak": {
			"name": "Artak",
			"race": "Dwarf",
			"occupation": "",
			"manner": "Muttering",
			"quote": "",
			"shadow": "Brown with shades of purple, like an oily puddle",
			"appearance": null,
			"tactics": null,
			"background": "<p>The Burukh family, and its matriarch Artak, keep to themselves. They have no connection whatsoever to Yndaros&rsquo; dwarven families or the kingdom of K&uuml;am Zamok, nor do they practice Dwarf Law. Their kin have lived in Kastor for ages; they claim to have been present even before the refugees who, following the war against the Spider King, established an outpost in the area about five centuries ago. The dwarves are a quiet lot, and if they have anything to say at all, they gently but firmly refer to their matriarch, Artak, who speaks on their behalf.</p>",
			"personalGoal": ""
		},
		"Baumelo": {
			"name": "鮑梅洛",
			"race": "人類 (安珀利亞)",
			"occupation": "假女巫獵人",
			"manner": "直睜睜的盯著跟他說話的人",
			"quote": "“把頭骨遞給我。”",
			"shadow": "鮑梅洛/歐達可進行了[交換暗影]的儀式，並將特爾的輕度污染的暗影作為自己的暗影：淡紅色的片狀物（腐化：4）。",
			"appearance": "",
			"tactics": "邪教領袖只追求國王的頭骨—其他的都是附加的。",
			"background": "",
			"personalGoal": ""
		},
		"Baumelo’s Henchmen": {
			"name": "鮑梅洛的手下",
			"race": "人類, 弱小",
			"occupation": "手下",
			"manner": "摩拳擦掌",
			"quote": "“給我們異教徒！”",
			"shadow": "灰色和黑色斑點，像烏黑的毛織補丁（腐化：4）",
			"appearance": "",
			"tactics": "<p>手下們每人攻擊一個角色，但會對看起來最強壯的角色雙人夾擊。</p>",
			"background": "<p>鮑梅洛/歐達可的手下們喜歡女巫獵人的名字所賦予的權力，但當反對者真的起身對抗時，他們就沒有那麼狂熱了。</p>",
			"personalGoal": ""
		},
		"Belago": {
			"name": "Belago",
			"race": "人類 (安珀利亞)",
			"occupation": "Sun Priest",
			"manner": "Struggles to remain calm",
			"quote": "",
			"shadow": "Gold shimmering, like sun on a  silver vase",
			"appearance": "",
			"tactics": "Belago does not fight, he heals. If he  indeed finds himself in battle, he shrouds himself  in a Holy Aura and asks the attacker to show Prios’  mercy; should that not help, he turns to flee or  hopes that his allies will save the day.",
			"background": "<p>Until recently, Belago was the second highest ran- king sun priest in Kastor. When father Karstak was murdered, Belago took his place as First Theurg. With this sudden advancement and the chaos following the temple fire, he now focuses on keeping his people calm and securing the burnt-down annex. Politics, on the other hand, do not interest Belago. Even though he has officially inherited Karstak&rsquo;s place at the Council, he will not take any part in it. However, tenacious player characters may convince Belago that something strange is going on at the Town Hall, prompting him to take action.</p>",
			"personalGoal": ""
		},
		"Berast": {
			"name": "Berast",
			"race": "Human (barbarian)",
			"occupation": "",
			"manner": "",
			"quote": "",
			"shadow": "Deep green",
			"appearance": "<p>For the barbarian clans of Davokar fighting is as natural as breathing. From childhood both girls and boys are trained to use the weapons of the clan, most often axe or spear in combination with a shield.</p>",
			"tactics": "The warriors of the clan chieftain’s guard lead by example, engaging the enemy in close combat, striking them down and finishing them off with mighty blows of the axe.",
			"background": "<p>With the possible exception of the now mercantile clan of Odaiova, fighting skills are the most highly respected ability among the barbarians &ndash; the chieftains almost always gain their position by proving themselves in combat. Every village has many capable warriors and the best of them are selected to be part of the chieftain&rsquo;s guard. And almost all of them nurture the dream of one day being chosen to represent the clan in the Guard of the Slumbering Wrath on Karvosti. <br /><br />Thanks to taboos you seldom encounter clan warriors anywhere but in the outskirts of the forest. However, the exceptions become more frequent with time. In Thistle Hold and Blackmoor there are numerous sellswords with a barbarian heritage, and there are also defectors from the clans who ignore the truths of old and venture deeper into the woods in search of ruins to plunder.</p>",
			"personalGoal": ""
		},
		"Berast’s Scouts": {
			"name": "Berast’s Scouts",
			"race": "Human",
			"occupation": "",
			"manner": "",
			"quote": "",
			"shadow": "Silver-shimmering",
			"appearance": "<p>The one who ventures into Davokar without having the proper Explorer&rsquo;s License needs to be cautious. The Queen&rsquo;s Rangers are tasked with patrolling the forest outskirts and sometimes make detours deeper into the woods. Such detours are most often made by a squad or a platoon of Rangers who have been tasked with investigating the veracity of certain rumors or to track down a particular beast that has attacked Thistle Hold, Kastor or some other border settlement. Irrespective of the purpose of their journey, they travel with the permanent duty to check up on everyone encountered in Davokar; those who do not have their license in order will be shackled, or put to death, if they struggle.</p>",
			"tactics": "A Ranger always assesses its target and attacks the weakest spot. They are scouts first and foremost, not warriors, and will refrain from attacking if the odds are stacked against them. If so, they trail their target until the odds have shifted or reinforcements have arrived.",
			"background": "<p>The Rangers are selected from within the regular army; they are resilient, experienced in combat and skilled when it comes to moving silently through the wilds. Some Rangers are specialists in various areas &ndash; beast lore, legends or fighting certain types of enemies &ndash; and sometimes they travel in the company of experts such as master builders, cartographers or war mages from Ordo Magica. A squad of Rangers, led by some scarred captain, is truly a force to be reckoned with &ndash; something which many unlicensed treasure-hunters have had to experience...</p>",
			"personalGoal": ""
		},
		"Berast’s Scouts, Leader": {
			"name": "Berast’s Scouts, Leader",
			"race": "Human",
			"occupation": "",
			"manner": "",
			"quote": "",
			"shadow": "Silver with streaks of gold",
			"appearance": "<p>The one who ventures into Davokar without having the proper Explorer&rsquo;s License needs to be cautious. The Queen&rsquo;s Rangers are tasked with patrolling the forest outskirts and sometimes make detours deeper into the woods. Such detours are most often made by a squad or a platoon of Rangers who have been tasked with investigating the veracity of certain rumors or to track down a particular beast that has attacked Thistle Hold, Kastor or some other border settlement. Irrespective of the purpose of their journey, they travel with the permanent duty to check up on everyone encountered in Davokar; those who do not have their license in order will be shackled, or put to death, if they struggle.</p>",
			"tactics": "The experienced Ranger fights in the front line, setting the standard for others to follow",
			"background": "<p>The Rangers are selected from within the regular army; they are resilient, experienced in combat and skilled when it comes to moving silently through the wilds. Some Rangers are specialists in various areas &ndash; beast lore, legends or fighting certain types of enemies &ndash; and sometimes they travel in the company of experts such as master builders, cartographers or war mages from Ordo Magica. A squad of Rangers, led by some scarred captain, is truly a force to be reckoned with &ndash; something which many unlicensed treasure-hunters have had to experience...</p>",
			"personalGoal": ""
		},
		"Blight Born Fairy": {
			"name": "腐化妖精",
			"race": "妖精 (春季精靈)",
			"occupation": "",
			"manner": "咯咯笑，瞇眼",
			"quote": "",
			"shadow": "黑色帶綠褐色斑點，像晚上漂浮在池塘上的腐爛樹葉（徹底腐化）",
			"appearance": "",
			"tactics": "雷恩和他的朋友們一次不會攻擊超過一個或兩個人。它們在無畏地攻擊獵物之前，會等待機會的出現。",
			"background": "",
			"personalGoal": ""
		},
		"Blight-born Man 1": {
			"name": "Blight-born Man 1",
			"race": "Abomination (ex-human)",
			"occupation": "",
			"manner": "Raging, howling",
			"quote": "",
			"shadow": "Utterly corroded copper",
			"appearance": "<p>Bloodshot skin with large, black blisters; cleft, flickering snake tongue; long claws. <br />Those who suffer the tainting effect of the krusean berries were already blight-marked when they arri- ved &ndash; they had stayed too long in Alberetor&rsquo;s dark- ness. As they are blight-born, they grow almost two meters tall and are deformed beyond recognition.</p>",
			"tactics": "The abomination wants to extinguish  life, all life; it does not care about its own.",
			"background": "",
			"personalGoal": ""
		},
		"Blight-born Man 2": {
			"name": "Blight-born Man 2",
			"race": "Abomination (ex-human)",
			"occupation": "",
			"manner": "Raging, howling",
			"quote": "",
			"shadow": "Utterly corroded copper",
			"appearance": "<p>Albino skin with throbbing, black veins; bright red eyes; abnormally long arms/legs; foot-long, razor-sharp bull horns. <br />Those who suffer the tainting effect of the krusean berries were already blight-marked when they arri- ved &ndash; they had stayed too long in Alberetor&rsquo;s dark- ness. As they are blight-born, they grow almost two meters tall and are deformed beyond recognition.</p>",
			"tactics": "The abomination wants to extinguish  life, all life; it does not care about its own.",
			"background": "",
			"personalGoal": ""
		},
		"Blight-born Woman": {
			"name": "Blight-born Woman",
			"race": "Abomination (ex-human)",
			"occupation": "",
			"manner": "Raging, howling",
			"quote": "",
			"shadow": "Utterly corroded copper",
			"appearance": "<p>Skin that blackens and falls off in large pieces; bare cranium with horn-like growths; right forearm transformed into a curved bone sword. <br />Those who suffer the tainting effect of the krusean berries were already blight-marked when they arri- ved &ndash; they had stayed too long in Alberetor&rsquo;s dark- ness. As they are blight-born, they grow almost two meters tall and are deformed beyond recognition.</p>",
			"tactics": "The abomination wants to extinguish  life, all life; it does not care about its own.",
			"background": "",
			"personalGoal": ""
		},
		"Blue Company": {
			"name": "Blue Company",
			"race": "Human",
			"occupation": "Sellsword",
			"manner": "",
			"quote": "",
			"shadow": "Various shades of green",
			"appearance": "<p>Securing a job in Ambria is not easy; securing a well-paid job is even harder &ndash; these facts are the main reason why so many resort to robbery and theft. Anywhere where valuables are transported brigands may appear; they attack along the rivers, on the roads of the lowlands and not least in mountain passes or in the forests.</p>",
			"tactics": "Robbers have learned to calculate the odds and will not attack if outnumbered – not even a strong leader can force them to attack a superior enemy",
			"background": "<p>Two of the most feared bands of brigands are based in the valleys of the Titans. One is led by the notorious Ice Witch, the daughter of Old Kadizar&rsquo;s last Chieftain, the other by an ogre know as Mound who commands a brutal horde of goblins and rage trolls. Other examples are the highwaymen of the free settlement Entekka, who primarily raid caravans traveling between Thistle Hold and Karvosti, and the notoriously cruel Captain Bartolo, whose pirates attack convoys on Lake Volgoma and on the rivers Eanor and Eblis.</p>",
			"personalGoal": ""
		},
		"Brand": {
			"name": "Brand",
			"race": "Phenomenon",
			"occupation": "",
			"manner": "",
			"quote": "",
			"shadow": "Glowing, like fire reflected in a  spotless copper mirror",
			"appearance": "",
			"tactics": "Brand protects his master by attacking  an enemy in full force. Also, Brand will defend  his master from all attacks and make counterattacks against any attacker within range of melee,  damage 8 (see the ability Bodyguard at master  level).",
			"background": "<p>Brand is the flaming servant of the fallen wizard Sikander, and together they have endured many horrors and survived many dangers. Brand is never more than a few paces behind his master, and his full set of smoldering armor and glowing two-han- ded sword commands the respect that becomes the bodyguard of a Master of Ordo Magica.</p>",
			"personalGoal": ""
		},
		"Burukh": {
			"name": "Burukh",
			"race": "Dwarven",
			"occupation": "The Bell-ringers",
			"manner": "Quiet",
			"quote": "",
			"shadow": "Shiny copper with spots of corrosion",
			"appearance": null,
			"tactics": null,
			"background": "<p>The Burukh family, and its matriarch Artak, keep to themselves. They have no connection whatsoever to Yndaros&rsquo; dwarven families or the kingdom of K&uuml;am Zamok, nor do they practice Dwarf Law. Their kin have lived in Kastor for ages; they claim to have been present even before the refugees who, following the war against the Spider King, established an outpost in the area about five centuries ago. The dwarves are a quiet lot, and if they have anything to say at all, they gently but firmly refer to their matriarch, Artak, who speaks on their behalf.</p>",
			"personalGoal": ""
		},
		"Captain Tredella": {
			"name": "Captain Tredella",
			"race": "Human",
			"occupation": "Sellsword Captain",
			"manner": "Grinning arrogantly",
			"quote": "",
			"shadow": "Various shades of green",
			"appearance": "<p>Securing a job in Ambria is not easy; securing a well-paid job is even harder &ndash; these facts are the main reason why so many resort to robbery and theft. Anywhere where valuables are transported brigands may appear; they attack along the rivers, on the roads of the lowlands and not least in mountain passes or in the forests.</p>",
			"tactics": "Robbers have learned to calculate the odds and will not attack if outnumbered – not even a strong leader can force them to attack a superior enemy",
			"background": "<p>Two of the most feared bands of brigands are based in the valleys of the Titans. One is led by the notorious Ice Witch, the daughter of Old Kadizar&rsquo;s last Chieftain, the other by an ogre know as Mound who commands a brutal horde of goblins and rage trolls. Other examples are the highwaymen of the free settlement Entekka, who primarily raid caravans traveling between Thistle Hold and Karvosti, and the notoriously cruel Captain Bartolo, whose pirates attack convoys on Lake Volgoma and on the rivers Eanor and Eblis.</p>",
			"personalGoal": ""
		},
		"Competent Black Cloak": {
			"name": "Competent Black Cloak",
			"race": "人類 (安珀利亞)",
			"occupation": "",
			"manner": "Haughtily condemning",
			"quote": "",
			"shadow": "Orange, like the rays of a rising  or setting sun",
			"appearance": "",
			"tactics": "The competent black cloak is a fearsome  warrior, dominating the enemy and striking with the  might of the Sun God. When surrounded by allies, his  power becomes even more evident, as the black cloak’s leadership can make weaklings fight like ogres  and the weak-minded resist the enemy’s influence.",
			"background": "<p>Brother Galdam and Sister Miela have worked together for over a decade, mainly with the dang- erous and often quite publicized task of hunting cultists within Ambria&rsquo;s borders. A few years ago weariness started to set in, and they asked Brother Eumenos for a more permanent post, preferably outside of Yndaros, where after many successful missions they were becoming known in both name and appearance. That is how they ended up in Ravenia where they, with deep frustration, have seen the seduction of the city&rsquo;s inhabitants by the dark without the Curia acting on their reports. They received Sister Losadra&rsquo;s informal orders with great gratitude and warmth in their hearts, a warmth blazing from the fire of the Lawgiver &ndash; they will do everything in their power to scatter the shadow which has descended upon Duke Ynedar and his city!</p>",
			"personalGoal": ""
		},
		"Darda": {
			"name": "Darda",
			"race": "人類 (安珀利亞)",
			"occupation": "Heretic",
			"manner": "Quiet but friendly",
			"quote": "",
			"shadow": "A copper surface with spots of  verdigris",
			"appearance": "",
			"tactics": "Darda really wants to understand what is  happening, which is why she hesitates risking her  life in combat. If she has no option, she uses her  knives to hold the enemy off while looking for an  escape route. If she fights together with allies (or a  former lover), the combat scene turns into a good  test of her true emotions; who is she willing to risk  her life for and who will she decide to leave in order  to solve the vexing riddle.",
			"background": "<p>Darda was raised in Kastor and has, with the excep- tion of one year in Thistle Hold, spent all her life in the town and its Sun Temple. That being said, Darda is an apostate; a heretic devoted to the Temple of the Many. Darda&rsquo;s position as liturg of the Sun Temple protects her and provides a place to worship Prios as she deems proper. Darda had a rough upbringing, and often stayed close to Sister Garala. As the priestess was accused of sorcery &ndash; and burned for it &ndash; Darda entered a very dark period in her life. When she emerged from it, she started looking into what had really happened. When the characters meet Darda, regardless of when or how it happens, she tells them the fol- lowing: She is certain that Garala had uncovered some dark cult, and that the evidence of her being a sorcerer was fabricated in order to get rid of her. One important piece to this puzzle is that it was Kagliostro who presented the allegations against the five sorcerers and saw to it that they were burned. While Darda has no physical evidence of this, there are witnesses (Belago, Illeva and Purgida) to confirm it &ndash; if they dare, and if the PCs get to them before they are taken to the Town Hall dungeons.</p>",
			"personalGoal": "<p>It is an open secret that Darda often visits the catacombs beneath the Sun Temple. She is also said to dwell in the mausoleum where Sister Garala is buried. This is not true, but certainly not something Darda wishes to correct, as she uses the catacombs to reach the Temple of the Many.</p>"
		},
		"Death Dancing Daythalers": {
			"name": "Death Dancing Daythalers",
			"race": "Human (barbarian)",
			"occupation": "",
			"manner": "Weeping, laughing, yowling",
			"quote": "",
			"shadow": "Green intertwined with black  cords",
			"appearance": "",
			"tactics": "The average daythaler would normally  flee from anything but a proper brawl with nothing  but fists and boots as weapons. However, when  caught up in the Dance of Death they will fight to  thedeath, alternately weeping and laughing.",
			"background": "<p>If the Eternal Hunter manages to get loose and initiate his Dance of Death, the majority of the daythalers working on the clay hill will be consu- med by the intoxication of the dance, and form the hunter&rsquo;s own little army.</p>",
			"personalGoal": ""
		},
		"Elsana": {
			"name": "Elsana",
			"race": "人類 (安珀利亞)",
			"occupation": "Priestess",
			"manner": "Grim and suspicious",
			"quote": "",
			"shadow": "Various shades of golden brown,  like fire reflected in a gold nugget",
			"appearance": "",
			"tactics": "Elsana is no stranger to combat; she spent  years at the front during the initial stages of The  Great War. If there is time, she surrounds herself and  nearby allies with a Blessed Shield, after which she  tries to Earthbind as many enemies as possible before crushing them with her mother’s Earth Shots.",
			"background": "<p>After more than twenty years in the dark, one would expect Elsana to be a broken woman. But she is a daughter of the Earthmother, and as such, she spent her captivity in her mother&rsquo;s embrace. Sure, her body may be weak, her skin as pale as snow. But in her mind she is still the same &ndash; a priestess who, with unshakable faith, is ready to fight for the restoration of Prios. For that is her conviction: the sun priests and the theurgs of today are the true heretics; their interpretation of Prios is a false god and a breeder of evil. Elsana wants to go with Orun to the Realm of the Order, but if someone convinces her that the Reformists exist and are working together with Queen Korinthia, she may be persuaded to stay in Ambria. Going back to prison is not an option; she would rather spend eternity in her mother&rsquo;s embrace.</p>",
			"personalGoal": ""
		},
		"Emelia Dardall": {
			"name": "Emelia Dardall",
			"race": "人類 (安珀利亞)",
			"occupation": "",
			"manner": "Serious, cruel",
			"quote": "",
			"shadow": "Bright silver with a few streaks  of pus-like yellow",
			"appearance": "",
			"tactics": "Emelia engulfs her holy bastard sword  with the fire of Prios and attacks the most heavily  armored enemy with fearsome blows. Convinced  that the One is fighting by her side, she never  backs away from a confrontation with heretics or  idolaters.",
			"background": "<p>When Commander Iakobo Vearra proclaimed the secession from the Curia and founded the Church of Dead Prios, Emelia was one of the templars who chose to leave the organization; her faith told her that the flame of the Lawgiver still flickered with life &ndash; that it was not too late. This decision was never due to any general religious doubts or any kind of love for the Lifegiver praised by the Reformists. No, she still wants to fight for the Curia, convinced that the Lawgiver can still be saved. She applied for a position with the Whip of Prios, where she was welcomed and immediately given a place in Sister Losadra&rsquo;s unit, replacing a twilight friar who had sworn allegiance to the First Revenger. To not only put obvious idolaters to the sword, but also help expose the ones hiding behind seemingly virtuous facades, suits her perfectly &ndash; it requires conviction, but also great faith in the Sun God&rsquo;s ability to unmask darkness.</p>",
			"personalGoal": ""
		},
		"Enforcer": {
			"name": "Enforcer",
			"race": "人類 (安珀利亞)",
			"occupation": "",
			"manner": "Calmly fanatical",
			"quote": "",
			"shadow": "Golden yellow with streaks and blemishes of dark red",
			"appearance": "",
			"tactics": "The Knights of Dead Prios fight with  controlled fury and move in groups to avoid being  flanked; only when they seem to be losing will they  unleash their berserker rage and attack in full force.",
			"background": "<p>With few exceptions, the Enforcers in Ervano&rsquo;s sun are lowborn nobles. They know how to conduct themselves properly, but no longer care about man- ners or etiquette. Their eyes burn with a fire which is never seen in other nobles, possibly as a result of the corruption they have willingly contracted to be more effective in their quest for vengeance.</p>",
			"personalGoal": ""
		},
		"Enlightened Cultist": {
			"name": "Enlightened Cultist",
			"race": "人類 (安珀利亞)",
			"occupation": "",
			"manner": "Growls, teeth bared",
			"quote": "",
			"shadow": "Sooty silver",
			"appearance": "",
			"tactics": "The enlightened cultists throw their  teratogenic knives while chanting dark hymns.",
			"background": "",
			"personalGoal": ""
		},
		"Ervano Vearra": {
			"name": "Ervano Vearra",
			"race": "人類 (安珀利亞)",
			"occupation": "",
			"manner": "Calmly furious",
			"quote": "",
			"shadow": "Streaks of faint yellow against a  darkening background, like the  last rays of sunlight across the  evening sky",
			"appearance": "",
			"tactics": "Ervano rides straight into battle surrounded by the lingering light of Prios, his sword  burning with wrath. Whether he gets off his horse  or fights from its back depends on the situation,  but when the enemies are many he prefers to rip  through their line with a charge or two before entering melee. He does not care about injuries, fully  aware that he grows stronger with every wound.",
			"background": "<p>As the son of Commander Iakobo Vearra and brother of Alisabeta, Ervano has been molded into a fierce champion of the Lawgiver since he was a toddler. He wears his scars, both spiritual and physical, with overflowing pride, and is of course extremely serious about avenging the death of Prios. Barbarians, goblins, ogres and other non-Ambrians who worship the darkness out of ignorance must be punished; those of the Queen&rsquo;s subjects who deliberately contributed to the Lawgiver&rsquo;s death and the spread of the Eternal Night deserve also to suffer! Ervano will hear no pleas and show no mercy. He no longer cares about his own soul: the First Revenger, his father, has proclaimed that all means are permitted in the quest for vengeance, even if they darken one&rsquo;s soul. Retribution is all that matters, and that is the path he will follow until the time comes for him to kneel by the dust of the murdered god.</p>",
			"personalGoal": ""
		},
		"Experienced Black Cloak  (pc –1)": {
			"name": "Experienced Black Cloak  (pc –1)",
			"race": "人類 (安珀利亞)",
			"occupation": "",
			"manner": "Scrutinizing look",
			"quote": "",
			"shadow": "Dull silver with black slits",
			"appearance": "",
			"tactics": "In combat the experienced black cloaks  split into groups, each commanded by a competent leader, who in turn chooses an enemy. The  group members may then use the Persuasive of  their leader instead of their own Resolute during  the scene (e.g. to resist mystical influences), and  they also deal +2 damage against the target chosen by their respective leader.",
			"background": "",
			"personalGoal": ""
		},
		"Fangafa": {
			"name": "範加法",
			"race": "獨特",
			"occupation": "荊棘女王",
			"manner": "搖晃，發出咔噠聲",
			"quote": "",
			"shadow": "紫色，在細微之處如此之深，以至於可以說是漆黑一片 (腐化：17)",
			"appearance": "<p>範加法看起來像一個光禿禿的巨大荊棘叢，上面有滑溜溜的、像樹枝一樣的外延，連著一個像牛一樣大的塊狀根體。其中八個分支比其他的要結實得多，就像章魚的手臂，但被樹皮覆蓋，在吸盤的位置上有荊棘刺。在這些長臂的遠端是狹窄的裂縫，如果打開，就可以看到巨大的貓眼。而靠近這些眼睛的地方有一個小小的、黑暗的、惡意的大腦。</p>",
			"tactics": "<p>範加法有八條觸手，但用其中四條緊緊抓住岩石，只用其餘四條攻擊。如果後者喪失了能力，她就會退出，直到它們完全痊癒（[再生]特性）。當她回來時，她會全力以赴：她離開裂縫，用所有八隻手臂攻擊。然而，如果其中四隻手臂被廢掉，她會試著逃跑並在一個安全的地方休養。還要注意的是，荊棘女王會本能地跟隨穢腐汙水。擺脫她的一個方法是因此將奇物扔向一個方向，然後向相反方向跑。* 每條觸手。這些觸手必須一個一個地打；當所有的觸手都被消滅後，範加法就會死亡。 <br /><strong>GM 筆記 </strong>每個觸手體質 16。所以你必須手動紀錄，每次觸手被摧毀都會從體質 16 開始。</p>",
			"background": "<p>範加法是一個古老的生命，它的大部分時間都生活在地下世界的黑暗中。她長期處於休眠狀態，但最近她被辛柏隆廢墟中以越來越快的速度滲出的腐化所喚醒。腐化也毒害了她，使她以前對肉體的飢渴變成了對力量越來越深的渴求。當她聽到遙遠的黑色心臟（穢腐汙水）的跳動時，她被引誘向它。堅實的基岩阻止了她到達心臟，但並不妨礙她在等待一些較小的生物把心臟帶出來時，試圖用爪子抓進去。</p>",
			"personalGoal": "<p>連範加法自己都不知道她是誰，來自哪裡。但是，由於文化人傾向於為他們遇到的所有邪惡事物附上名字和起源，多年來，荊棘女王激發了無數的傳說。有些人說她被賦予了意識、靈魂和飢餓感，作為對辛柏隆的一位大法師在他自己的後院裡存放的腐化的魔法廢物的反應。在其他時候，有人說她是被錯誤地創造出來的，是由賦予巨獸生命的同一位法師創造的。其他消息來源稱她是一個癡呆的自然神，一個徹底腐敗的大巨魔，一個達沃卡靈魂上的黑色腫瘤。範加法本人並不在意；她活著只是為了平息對力量的渴求，而這種渴求現在在她的八個頭腦中叫囂著。其他都不重要。她不再吃東西；如果她殺人，也是出於挫折感或本能，而不是為了滿足某種渴望。她所渴望的只是力量，如果不允許她飲用穢腐汙水，她最終會餓死，只留下一具發酵和腐爛的屍體—對於曾經自由而強大的荊棘女王來說，這真是一座悲傷的紀念碑，她曾被巨魔國王所敬仰，被辛柏隆的王子們所畏懼，被每一個冬季精靈視為聖物。</p>"
		},
		"Fullangra": {
			"name": "富蘭格拉",
			"race": "矮人",
			"occupation": "王之僕從",
			"manner": "自言自語",
			"quote": "“站著埋葬我，我死後也絕不屈膝上。”",
			"shadow": "就像達沃卡池塘上的霧，孤獨的煙灰片在霧中飛舞 (腐化：3)",
			"appearance": "<p>Fullangra speaks in an ancient Symbarian dialect and can neither read nor write. When someone binds to the artifact, a mystical bond appears between him and the dwarf, meaning that they can communicate telepathically. For anyone else it takes the ability Loremaster at the Master level, and a successful Cunning test to converse. It must also be noted that she never uses her true name, not even with her master; instead she always calls herself Longenuff.</p>",
			"tactics": "<p>富蘭格拉服從命令，直奔主題。如果她被殺了（體質達到 0，不做死亡骰），她會回到盒子裡，在需要七天才能復原。</p>\n<h3 class=\"fancytext\" style=\"font-size: large;\">富蘭格拉成功刺殺的機會</h3>\n<table style=\"border-style: solid; margin-left: auto; margin-right: auto; width: 95%; border: 3px; font-size: 10pt;\">\n<tbody>\n<tr style=\"color: aliceblue; background-color: black; font-size: 10pt;\">\n<td style=\"width: 20%; text-align: center;\">難度</td>\n<td style=\"width: 80%; text-align: center;\">成功機率</td>\n</tr>\n<tr>\n<td style=\"width: 20%;\">弱小</td>\n<td style=\"width: 80%;\">擲出 1d20，20 以外富蘭格拉都會成功</td>\n</tr>\n<tr>\n<td style=\"width: 20%;\">普通</td>\n<td style=\"width: 80%;\">擲出 1d20，如果結果等於或小於 10，富蘭格拉成功</td>\n</tr>\n<tr>\n<td style=\"width: 20%;\">挑戰</td>\n<td style=\"width: 80%;\">擲出 1d20，如果結果等於或小於 5，富蘭格拉成功</td>\n</tr>\n<tr>\n<td style=\"width: 20%;\">強大</td>\n<td style=\"width: 80%;\">擲出 1d20，如果結果為 1，富蘭格拉成功</td>\n</tr>\n</tbody>\n</table>",
			"background": "<p>彎曲的矮人富蘭格拉—或稱朗格納夫，正如她自己所說的那樣—很久以前被邪術師抓住，並被綁在承載她形象的木雕箱子上。</p>\n<p>@Item[cxiOUaenEVfXFE26]{富蘭格拉的箱子}</p>\n<p>幾個世紀以來，她為許多主人服務，包括軍閥和地方國王，總是忠心耿耿，但從來沒有抱怨和投訴。她的壞脾氣使最近的主人胡瑞安-羅阿帕克國王感到厭倦，把箱子放在他的國庫裡，而不是利用她的服務。在箱子裡孤獨地生了幾個世紀的悶氣，使富蘭格拉變得有些軟弱，她將為她的下一個主人服務，更多的是嘀咕和低聲抱怨，而不是大聲反對。</p>",
			"personalGoal": "<p>尊敬富蘭格拉的玩家角色可以讓這個原本沉默寡言的矮人分享她對自己民族歷史的看法—因為她在箱子待了幾個世紀之後還記得這一切。據她說，矮人的生活命運是一個漫長的旅程，經歷了苦難、壓迫和被迫同化。“我們生來就是世界之蛇腐肉中的蟲子，被辛巴爾的王子授予機智，使我們成為更好的奴隸，” 她談到她的人民時說。但也有自豪感和對自由的渴望。 “我們設計了一種自己的語言，有密碼和秘密的雙重含義，如此復雜，甚至連主人都無法理解。我們從不寫作，因為所寫的東西可以被閱讀、解釋和破譯。我們的夢想是我們自己的，不是別人的。” 關於他們在達沃卡底下的家園，她說：“我們什麼也不建造，什麼也不創造，什麼也不擁有，所以什麼也不能從我們這裡拿走。主人可以殺死我們，但每一具屍體都讓他們失去了一個秘密。甚至他們的死亡魔法也無法觸及我們，因此他們憎恨我們—隨著時間的推移，他們也開始害怕我們。”</p>"
		},
		"Gabba Bigpaw": {
			"name": "加巴·大爪",
			"race": "地精",
			"occupation": "地精酋長",
			"manner": "緊張地笑了笑，拍了拍他的肚子",
			"quote": "“歡迎你，來到大爪的國度。”",
			"shadow": "褐色像發霉的腐殖土（腐化：0）",
			"appearance": "<p>作為一個地精，加巴並不高大強壯，但非常狡猾—這就是他的偉大之處。他帶領他的部落從地下世界上來，遠離恐嚇他們的巨魔。這樣做，他贏得了部落的信任，即使他很難對自己的統治者角色感到舒服；當然，他一直夢想著成為部落的首領，但這個職位所帶來的責任是他所不關心的。</p>",
			"tactics": "加巴會盡量了解對手的情況，然後再冒險。如果玩家角色有敵意，他將試圖引誘他們站在他寶座前的巨魔陷阱上，然後啟動它。之後，他將派他的保鏢進行攻擊，而自己則採取防守姿態。請注意，加巴的[領袖]能力使他的臣民在攻擊他們的首領指定的目標（即看起來最危險的人物）時造成 +2 傷害。",
			"background": "",
			"personalGoal": ""
		},
		"Generic Urrbukk": {
			"name": "通用烏爾巴克",
			"race": "地精",
			"occupation": "",
			"manner": "擠在一起或在瘋狂的恐慌中逃跑",
			"quote": "”加巴是我們的勇士！ 我聽說 …”",
			"shadow": "斑駁的綠色，像長滿青苔的森林，被淡綠色的雜草包圍（腐化：1）",
			"appearance": "<p>除了少數例外，部落的20個地精—青年、老人、漿果和蘑菇採集者、弱者等等—都留在部落新家的二樓。如果他們沒有被戰士或酋長召集起來，例如在應對圍攻時，他們不會參加戰鬥。</p>",
			"tactics": "部落裡的地精們盡其所能地戰鬥，換句話說就是啥都不幹。如果沒有明確的戰鬥命令，他們會做他們一直在做的事情—逃亡，並希望在其他地方找到更安全的住處。",
			"background": "",
			"personalGoal": ""
		},
		"Gerek": {
			"name": "Gerek",
			"race": "亡靈",
			"occupation": "",
			"manner": "Clicks his teeth",
			"quote": "",
			"shadow": "Deeply black, like a mere in darkness (thoroughly corrupt)",
			"appearance": "",
			"tactics": "<p>Gerek attacks the closest intruder.</p>",
			"background": "<p>The undead is Alahara&rsquo;s first victim, a trapper named Gerek. Gerek&rsquo;s skin was found by the second victim, Lenn. In death, Gerek&rsquo;s remains were reanimated by the mere presence of the king&rsquo;s skull and he guards the warehouse as ordered by the wraith king Hurian. The creature will not attack Alahara or Gorak.</p>",
			"personalGoal": ""
		},
		"Girind": {
			"name": "Girind",
			"race": "Human (barbarian)",
			"occupation": "The Region’s Witch",
			"manner": "Listening, speaks slowly",
			"quote": "",
			"shadow": "Green like baby leafs with single  black spots from parasitic infestation",
			"appearance": "",
			"tactics": "The witch stays behind her guard warriors  and leads them to victory. If the battle takes a turn  for the worse she will order retreat and assemble a  larger group of warriors before returning.",
			"background": "<p>Girind is a young witch, but as a close friend to the local chieftain Basuma she was asked to oversee the guarding of the hill and the taboo area. Girind is deeply worried by what is happening in the camp, knowing that there is truth behind the myth of the Wild Hunt. Since the witch herself cannot enter taboo grounds, she has &ndash; with some slight bending of the rules &ndash; sent &ldquo;her&rdquo; ogre Roughneck to the camp. This proved to be a smart move, as the spy also came to shoulder the role of bailiff, enabling her to meddle in most matters without raising suspicion. On the contrary, it is expected of Roughneck to investigate things. Girind keeps watch from her treehouse on a hill in the outskirts of the area. She has a good view of the clay hill, but aside from a few rooftops over the edge of the palisade she does not see much of the camp below. She has provided her spy with fire dye, an alchemical salt that makes fire shift colors. Using it, Roughneck may send simple messages to Girind.</p>",
			"personalGoal": ""
		},
		"Girind’s bodyguards": {
			"name": "Girind’s bodyguards",
			"race": "Human (barbarian)",
			"occupation": "",
			"manner": "",
			"quote": "",
			"shadow": "Deep green",
			"appearance": null,
			"tactics": null,
			"background": "<p>Girind is accompanied by five Karitian guard warriors</p>",
			"personalGoal": ""
		},
		"Glowing Guards": {
			"name": "發光衛士",
			"race": "",
			"occupation": "",
			"manner": "",
			"quote": "",
			"shadow": "像熔岩一樣發光，在燃燒的石頭上覆蓋著一層層黑色的煤煙和灰燼（腐化：6）",
			"appearance": "<p>衛兵們正在等待為他們的國王服務。他們對周圍的動靜沒有反應—只對有人進入通往埋葬室的走廊、篡改通往寶藏室的大門或被觸動時有反應。當他們醒來時，他們盔甲上的符文、他們手中的劍和衛士背後的眼睛開始發光。短劍變得紅熱，造成 +2 傷害（只有在發光衛士揮舞時）。</p>",
			"tactics": "發光衛士向最近的入侵者移動，並攻擊直到其死亡。他們在敵人之間進行分工，但除此以外，他們沒有共同的策略。",
			"background": "",
			"personalGoal": ""
		},
		"Goblin Warriors": {
			"name": "地精戰士",
			"race": "地精",
			"occupation": "",
			"manner": "實際上很害怕",
			"quote": "“死？不...什麼！？”",
			"shadow": "苔蘚綠色和深褐色，像一個過度生長的樹樁（腐化：1）",
			"appearance": "<p>這 8 個地精（4 個巡邏隊，每個巡邏隊有 2 個戰士）的戰鬥力不強，也不像保鏢那樣忠誠。對他們有利的是他們的生存本能，他們在戰鬥時很好地利用了這一點。通常情況下，兩支巡邏隊在前廳（#2a），一支巡邏隊守衛在柵欄上的大門，最後一支巡邏隊則在城堡周圍的森林地區巡邏。</p>",
			"tactics": "加巴的勇士們服從命令。他們將使用額外的移動動作和來自[求生本能]的額外保護，以便從擁有長武器中獲益。如果 4 個巡邏隊中的三個或加巴本人倒下了，剩下的地精戰士將轉身逃跑。",
			"background": "",
			"personalGoal": ""
		},
		"Gorak, blight-born": {
			"name": "戈拉克，腐化",
			"race": "穢物",
			"occupation": "",
			"manner": "肆虐，憤怒",
			"quote": "“我無法再忍受了...呃啊啊啊啊！”",
			"shadow": "一個脈動的黑色，像沸騰的焦油下面有一層薄薄的膜，隨著他的轉變而爆裂（徹底腐化）。",
			"appearance": "",
			"tactics": "穢物掙脫了他的束縛，隨機攻擊一個人。艾拉哈拉也處於危險之中。",
			"background": "",
			"personalGoal": ""
		},
		"Grendol": {
			"name": "Grendol",
			"race": "亡靈",
			"occupation": "Mayor",
			"manner": "Twitching, repetitive motions",
			"quote": "",
			"shadow": "Yellowish gray like dead skin, with dark spots that grow as the undead body slowly rots",
			"appearance": "<p>Sword protruding from his eye socket</p>",
			"tactics": null,
			"background": "<p>Grendol had only been Mayor for less than a day when he was killed and brought back to life by Kagliostro. Now undead, he is at the Town Hall signing arrest warrants with machinelike motions, and will keep doing so until interrupted. Should someone attack him, or interfere with the job at hand, Grendol will defend himself. He attacks by grabbing and headbut- ting his enemy &ndash; with the tip of the sword that killed him still protruding from his eye socket.</p>",
			"personalGoal": ""
		},
		"Gylta": {
			"name": "Gylta",
			"race": "Beast",
			"occupation": "The Elder Sow",
			"manner": "Sad, full of suppressed anger",
			"quote": "",
			"shadow": "Deep red, with roses of rust and  ashen grey",
			"appearance": "",
			"tactics": "Gylta leads her herd straight for the  enemy and her target is to reach the Eternal  Hunter to finish what she started so long ago.  The fools standing in the way have themselves  to blame.",
			"background": "<p>Gylta is the holy protector of her people, an ancient force that has willingly relinquished the circle of life of being born, giving life, and dying. She will never bear piglets, but compensates that grief with the pride of leading and protecting her kind from danger. Her greatest challenge yet was facing the Wild Hunt and its leader, the Eternal Hunter. She still keeps the hunter&rsquo;s broken spear stuck in her side as a painful reminder of the battle, and now spends her time brooding on vengeance; in her eyes, the Eternal Hunter is a grave threat to her people and, in her obsession, she has forsaken them to such a degree that all that remains of the once proud tribe is a weak and dwindling herd, gathered around Gylta herself. The Eternal Hunter is a potential threat, but right now Gylta is a greater one. The one who makes her see this will receive her help &ndash; assuming that he or she also agrees to wipe the Eternal Hunter from existence. If someone promises Gylta to put an end to the Eternal Hunter, she will turn her wounded side to the person and ask for the spear to be extracted.</p>",
			"personalGoal": ""
		},
		"Harbassas": {
			"name": "Harbassas",
			"race": "Goblin",
			"occupation": "Warrior Leader",
			"manner": "Nervously giggling",
			"quote": "",
			"shadow": "Green or copper",
			"appearance": "<p>We make up many names for those we love; the same is true for the ones we detest. Call them treasure-hunters, fortune-hunters, explorers or grave robbers &ndash; many are the Ambrians who put their lives at risk in the hope of finding riches in the ruins of old Symbaroum.</p>",
			"tactics": "The fortune-hunter flings his or her throwing knives from behind the shield, and enters into melee when the knives run out, or if the enemy forces him to do so.",
			"background": "<p>Nowadays most people have realized the foolishness in challenging Davokar singlehandedly, which is why almost everyone travels with at least four companions. But the composition of the groupings may of course vary considerably, from being made up of a handful of former peasants scratching for precious metals in the forest outskirts to disciplined expeditions led by Ordo Magica or some ambitious nobleman. <br /><br />The plunderers are of the brutish kind &ndash; groups of individuals who have managed to scrape together enough coin to buy an Explorer&rsquo;s License and ventured into the woods hoping to find the mother lode. As they have risked everything they own, and maybe even taken loans from some shady moneylender, they are not likely to abandon their dig-site without a fight. For that reason it is probably true that in the outskirts of Davokar treasure-hunters are killed by competitors as often as they are by beasts, elves or local barbarians.</p>",
			"personalGoal": ""
		},
		"Harbassas' Maruders": {
			"name": "Harbassas' Maruders",
			"race": "Goblin",
			"occupation": "Warriors",
			"manner": "Nervously giggling",
			"quote": "",
			"shadow": "Green or copper",
			"appearance": "<p>We make up many names for those we love; the same is true for the ones we detest. Call them treasure-hunters, fortune-hunters, explorers or grave robbers &ndash; many are the Ambrians who put their lives at risk in the hope of finding riches in the ruins of old Symbaroum.</p>",
			"tactics": "The fortune-hunter flings his or her throwing knives from behind the shield, and enters into melee when the knives run out, or if the enemy forces him to do so.",
			"background": "<p>Nowadays most people have realized the foolishness in challenging Davokar singlehandedly, which is why almost everyone travels with at least four companions. But the composition of the groupings may of course vary considerably, from being made up of a handful of former peasants scratching for precious metals in the forest outskirts to disciplined expeditions led by Ordo Magica or some ambitious nobleman. <br /><br />The plunderers are of the brutish kind &ndash; groups of individuals who have managed to scrape together enough coin to buy an Explorer&rsquo;s License and ventured into the woods hoping to find the mother lode. As they have risked everything they own, and maybe even taken loans from some shady moneylender, they are not likely to abandon their dig-site without a fight. For that reason it is probably true that in the outskirts of Davokar treasure-hunters are killed by competitors as often as they are by beasts, elves or local barbarians.</p>",
			"personalGoal": ""
		},
		"Ice Witch’s Rebels": {
			"name": "Ice Witch’s Rebels",
			"race": "Human",
			"occupation": "",
			"manner": "",
			"quote": "",
			"shadow": "Various shades of green",
			"appearance": "<p>Securing a job in Ambria is not easy; securing a well-paid job is even harder &ndash; these facts are the main reason why so many resort to robbery and theft. Anywhere where valuables are transported brigands may appear; they attack along the rivers, on the roads of the lowlands and not least in mountain passes or in the forests.</p>",
			"tactics": "Robbers have learned to calculate the odds and will not attack if outnumbered – not even a strong leader can force them to attack a superior enemy",
			"background": "<p>Two of the most feared bands of brigands are based in the valleys of the Titans. One is led by the notorious Ice Witch, the daughter of Old Kadizar&rsquo;s last Chieftain, the other by an ogre know as Mound who commands a brutal horde of goblins and rage trolls. Other examples are the highwaymen of the free settlement Entekka, who primarily raid caravans traveling between Thistle Hold and Karvosti, and the notoriously cruel Captain Bartolo, whose pirates attack convoys on Lake Volgoma and on the rivers Eanor and Eblis.</p>",
			"personalGoal": ""
		},
		"Ice Witch’s Rebels, Leader/Followers": {
			"name": "Ice Witch’s Rebels, Leader/Followers",
			"race": "Human",
			"occupation": "",
			"manner": "",
			"quote": "",
			"shadow": "Green with spots of copper",
			"appearance": "<p>Securing a job in Ambria is not easy; securing a well-paid job is even harder &ndash; these facts are the main reason why so many resort to robbery and theft. Anywhere where valuables are transported brigands may appear; they attack along the rivers, on the roads of the lowlands and not least in mountain passes or in the forests.</p>",
			"tactics": "The leader of the outfit fights along with his or her fellow raiders; anything else would not be tolerated. However, he or she makes use of the Dominate ability to steer enemies to other targets.",
			"background": "<p>Two of the most feared bands of brigands are based in the valleys of the Titans. One is led by the notorious Ice Witch, the daughter of Old Kadizar&rsquo;s last Chieftain, the other by an ogre know as Mound who commands a brutal horde of goblins and rage trolls. Other examples are the highwaymen of the free settlement Entekka, who primarily raid caravans traveling between Thistle Hold and Karvosti, and the notoriously cruel Captain Bartolo, whose pirates attack convoys on Lake Volgoma and on the rivers Eanor and Eblis.</p>",
			"personalGoal": ""
		},
		"Ignis, Purgida’s Flaming Servant": {
			"name": "Ignis, Purgida’s Flaming Servant",
			"race": "Phenomenon",
			"occupation": "Purgida’s Flaming Servant",
			"manner": "",
			"quote": "",
			"shadow": "Blazing like a roaring bonfire  (corruption: 0)",
			"appearance": "",
			"tactics": "Normally, Ignis walks behind Purgida,  but in combat he positions himself in front of her,  swinging his enormous axe. Ignis also tries to  make sure that the attacks aimed at his mistress  hit him instead (this requires a passed Resolute  test, see the Bodyguard ability).",
			"background": "",
			"personalGoal": ""
		},
		"Illeva": {
			"name": "Illeva",
			"race": "Human",
			"occupation": "Commander of Kastor",
			"manner": "Suspicious and worried",
			"quote": "",
			"shadow": "Silver with streaks of gold",
			"appearance": "<p>The town&rsquo;s commander is a taciturn veteran, harde- ned by many battles against monsters and barbari- ans. She is the firm-handed leader of Kastor&rsquo;s Town Watch, although she prefers resolving problems herself. She is often seen where order is disrupted and crimes are being investigated.</p>",
			"tactics": null,
			"background": null,
			"personalGoal": ""
		},
		"Jakaar": {
			"name": "Jakaar",
			"race": "Beast",
			"occupation": "Battle-trained",
			"manner": "",
			"quote": "",
			"shadow": "Lush green",
			"appearance": "",
			"tactics": "The jakaars roaming the ravine are  trained to mark anyone they do not recognize,  by barking and trying to stop the intruder from  escaping. They do not attack until they themselves are attacked, or one of their human masters  orders them to.",
			"background": "<p>Battle-trained beasts are quite common among the clans in the region, and none more so than the wolf-like jakaar. The barbarians have tamed these large canines for centuries, and for members of clan Odaiova it is common practice for every family to have at least one jakaar, to safeguard them at night and keep them company during the waking hours.</p>",
			"personalGoal": ""
		},
		"Kagliostro": {
			"name": "Kagliostro",
			"race": "人類 (安珀利亞)",
			"occupation": "Teratomancer",
			"manner": "Grandiose gestures, grand words  on exaltation and submission",
			"quote": "",
			"shadow": "Lush green with streaks of rotting vegetation",
			"appearance": "<p>Kagliostro conceals his growing horns and claws by wearing long gloves and a large slouch hat, and covers his spreading scales with cosmetics. An attentive player character may see through all of this with a successful [Vigilant &ndash;4] test. Kagliostro is well aware that his exalted state cannot be kept secret for long, but soon, such things will no longer matter: when his plan has succeeded, he will display his bestial features to the world as a badge of honor.</p>",
			"tactics": "Kagliostro has no interest in berating  insubordinate characters, unless they are an acute  threat to his plans; he gladly leaves such activities  to his minions. If he has to intervene, he keeps to  the background, making himself unnoticeable and  his enemies life difficult using Larvae Boil. During  the fight in the mine, Kagliostro is consumed by  the ceremony until it is completed or interrupted  by the characters.",
			"background": "<p>The son of Ambrian settlers, raised at the edge of Davokar, young Kaglio watched his family be annihilated by a beast of the forest, a raging aboar, furious from being wounded by Ambrian monster hunters. Only Kaglio managed to survive, thanks to his curious talent for moving unseen. For a few years he lived on the streets of Kastor, stealing to survive, before his talents were dis- covered by a passing member of Terato&rsquo;s Dawn, who took him in. Kaglio has since advanced rapidly within the cult, and some years ago he adopted the suffix &ldquo;-ostro&rdquo;, thinking it a powerful name more suitable to a man of his potential. If his plan to free the serpent Margumal is successful, Kagliostro will be able to claim leadership of Terato&rsquo;s Dawn &ndash; and then mankind will enter a new era, ruled by monstrous masters!</p>",
			"personalGoal": ""
		},
		"Kastor’s Town watchmen": {
			"name": "Kastor’s Town watchmen",
			"race": "Human",
			"occupation": "",
			"manner": "Demoralized and afraid",
			"quote": "",
			"shadow": "Shiny copper with spots of corrosion",
			"appearance": "<p>Kastor&rsquo;s town watchmen are strangers in their own town, outnumbered by Kagliostro&rsquo;s forces &ndash; the Blue Company, Harabassas&rsquo; Marauders, and the cultists of whom they are not even aware. Formally, all orders come from Mayor Grendol, though all but the most ignorant realize that something is terribly wrong with the current situation. They trust in their commander, Illeva, but since her complaints have been ignored by her superiors, most watchmen now make as little effort as they possible can without disobeying direct orders.</p>",
			"tactics": null,
			"background": null,
			"personalGoal": ""
		},
		"Kotka": {
			"name": "Kotka",
			"race": "Beast",
			"occupation": "",
			"manner": "Confident, bold",
			"quote": "",
			"shadow": "Bright green like the leaves of a  birch",
			"appearance": "<p>The mighty kotka is one of the Titans&rsquo; most fear- some predators. It has thick winter fur of yellowish white with black streaks across its back, terrible fangs, and claws sharp enough to cut through even the toughest of ogre skin.</p>",
			"tactics": "Kotkas tend to hunt in pairs or groups  of three adults; they usually sneak up on herds  of prey and work together to isolate a single  target. They do the same when facing a group  of enemies – they focus on one target at a time,  trying to gain an advantage through flanking movements. Naturally, they will attack the largest,  most tough-looking opponent first.",
			"background": "",
			"personalGoal": ""
		},
		"Mal-Rogan/Tanfalls": {
			"name": "馬爾-羅根/坦法爾斯",
			"race": "亡靈",
			"occupation": "",
			"manner": "用嘶啞的聲音說話，歪著頭",
			"quote": "“嘗試死亡—它比生命更重要！”",
			"shadow": "黑如瀝青（徹底腐化）",
			"appearance": "",
			"tactics": "羅根讓他的追隨者首先進攻，而他則對他認為最難對付的敵人施加詛咒。當詛咒生效後，他帶著他的尖頭棍棒進入戰鬥。",
			"background": "<p>女王之盾的羅根·戈林德在大戰期間死於戰鬥。他在戰鬥中被砍掉了手臂，傷口開始腐爛，醫護人員對蔓延在他體內的黑色感染無能為力。但羅根醒來時並沒有死亡，而是變成了亡靈，手臂上的殘肢滴著膿液，發黑的血管在他的喉嚨和太陽穴上煽動。這位貴族已經變成了一個真正的強盜男爵。以前他在泰坦山脈經營著一夥強盜，但現在已經向北走了—可能是為了獵取太陽石或他那可怕的護身符，否則就是希望能找到更多有價值的同伴。如果馬爾-羅根不在了，那麼前邪教領袖坦法爾斯將取代他在歐達可/蘭德拉的身邊—被他的徒弟謀殺，此後成為凶手的僕人。</p>",
			"personalGoal": ""
		},
		"Margumal": {
			"name": "Margumal",
			"race": "Serpent (Lindworm)",
			"occupation": "",
			"manner": "Bewildered and furious",
			"quote": "",
			"shadow": "Pulsing green, like a great mossclad heart with veins a dark and  oily purple",
			"appearance": "",
			"tactics": "The lindworm is initially confused and  prone to regard all creatures nearby as enemies.  When it calms down, its goal will be to get free  and will avoid any fights which do not further that  course. Should it find itself cornered it uses bites  and the trait Enthrall in a deadly combination.",
			"background": "",
			"personalGoal": ""
		},
		"Murky": {
			"name": "Murky",
			"race": "Ogres",
			"occupation": "",
			"manner": "Glaring arrogantly, muttering",
			"quote": "",
			"shadow": "Crimson red",
			"appearance": "<p>The goblins&rsquo; &rdquo;own&rdquo; ogres obey no-one but Harbassas.</p>",
			"tactics": null,
			"background": null,
			"personalGoal": ""
		},
		"Njegg": {
			"name": "涅格",
			"race": "地精",
			"occupation": "地精薩滿",
			"manner": "說話沉思，頭偏向一邊",
			"quote": "“在夢境中，我看到了我們的救贖； 在迷霧中的是你嗎？”",
			"shadow": "翡翠綠，像黴菌覆蓋的苔蘚，沾染了單個黑點（腐化：1）",
			"appearance": "",
			"tactics": "涅格不喜歡戰鬥，這讓她胃痛。但是，如果她的兄弟處於危險之中，她會盡其所能地保護他的安全。戰鬥一開始，她就沉入地下（自然之擁），並幫助加巴減輕他遭受的一些傷害（傷害轉移）。",
			"background": "涅格是加巴的靈媒妹妹，對她的哥哥非常忠誠。然而，他們對目前的情況有不同的看法。 加巴認為他已經在廢墟中找到了部落的未來，而涅格則擔心在側室中嘀咕的人類。她對他的喃喃自語了解甚少，再加上堡壘內凍乾的屍體，讓她感到毛骨悚然—那些吸走前主人生命的東西可能還會回來。涅格想知道更多，並準備鼓勵她哥哥相信這些人物，只要他們不手持武器衝進來。",
			"personalGoal": ""
		},
		"Odako/Landela": {
			"name": "歐達可/蘭德拉",
			"race": "人類 (安珀利亞)",
			"occupation": "",
			"manner": "盯著他說話的對象",
			"quote": "“為何要恐懼黑暗？ 這是力量！”",
			"shadow": "像天鵝絨斗篷內部一樣溫暖的黑色（腐化：6）",
			"appearance": "",
			"tactics": "<p>歐達可/蘭德拉對利用他人並不陌生，他通過虛假的聯盟和優惠承諾來利用他人。最後，他只關心自己。在戰鬥中，他/她試圖從遠處對敵人進行詛咒，或將弱小的對手作為他/她用劍攻擊的目標。</p>",
			"background": "<p>歐達可率領著一群來自達沃卡門檻上的村莊格利姆萬村的邪教分子。在《野獸印記》中，他偽裝成黑袍鮑梅洛來到薊花要塞，獵取戈拉克和艾拉哈拉吹噓的古代顱骨。根據冒險過程中發生的事情，歐達可可以有不同的理由來到這個地區（參見邪教徒和以前的冒險）。如果人物沒有玩過《野獸印記》，或者歐達可死了，建議是歐達可/蘭德拉聽到了關於祕法學會探險隊的閒言碎語，並將他們與關於國王頭骨的傳聞聯繫起來。在這種情況下，他們在這個地區希望能從墓穴內的其他黑暗寶藏中下手。</p>",
			"personalGoal": ""
		},
		"Purgida": {
			"name": "Purgida",
			"race": "人類 (安珀利亞)",
			"occupation": "Adept of the Order",
			"manner": "Loud and clumsy",
			"quote": "",
			"shadow": "Polished gold mirroring a fire",
			"appearance": "",
			"tactics": "Purgida tries to shield off the field of  combat with her flame wall so that fewer enemies  reach her allies. After that she offers support, casting brimstone cascades from behind the melee.  Her flaming servant is always close to her for protection.",
			"background": "<p>Among the headstrong wizards of Kastor, squabbling between themselves while leaving external affairs to the sociable Kagliostro, there is but one potential ally to the player characters: the ambitious adept Purgida. A student of the pyromancer Isokles, she dreams of one day being a master pyromancer herself. Her fiery disposition makes her less inclined to be reading tomes and scrolls in her chambers; she prefers to put her skills to the test by, for example, assisting the Town Watch.</p>",
			"personalGoal": ""
		},
		"Raharax": {
			"name": "Raharax",
			"race": "Troll (Liege troll)",
			"occupation": "",
			"manner": "Menacingly indecisive",
			"quote": "",
			"shadow": "Crimson with faint streaks of  rust",
			"appearance": "",
			"tactics": "Liege trolls without weaker creatures  to command often lack their usual arrogance,  and that is certainly the case with Raharax. On  the other hand, he is absolutely famished. If the  characters stand their ground he will hesitate  and use gestures to demand tribute (i.e. food).  But if the troll is offered too little, or nothing at  all, his appetite gets the better of him; the same  happens if the characters turn their backs on him  or start to back away.",
			"background": "<p>Until thirteen days ago, Raharax was the master of four rage trolls, six goblins, and eight enslaved humans. It was a glorious time. His minions brought him food, instilled respect in the local beasts, and let themselves be dominated as all minions should. But one day everything was lost; an avalanche buried all of his followers, and Raharax was the sole survivor &ndash; not counting the two human slaves who have since lost their lives to still his terrible hunger. The liege troll is determined to rebuild his fol- lowing, but cannot shake the feeling that the moun- tains want him to fail. Moreover, starvation has made him dizzy. He only fights when victory seems certain, or when he is completely overcome with rage.</p>",
			"personalGoal": ""
		},
		"Sikander": {
			"name": "Sikander",
			"race": "人類 (安珀利亞)",
			"occupation": "",
			"manner": "Forced speech, quick to anger",
			"quote": "",
			"shadow": "Blackened silver",
			"appearance": "",
			"tactics": "Sikander raises a Flame Wall around  himself and his flaming servant. Anyone entering  through the wall of fire encounters Brand in  melee while Sikander maneuvers so he can cast a  chain of Brimstone Cascades at the enemy. He is  prepared to die for his claim and during the fight  he accuses the attackers of wanting to “steal his  precious treasure”.",
			"background": "<p>Sikander was once a Master of Ordo Magica in Agrella, one of the Order&rsquo;s brightest stars and, according to some, a possible successor to Grand Master Seldonio. This view was shared by Sikander himself, as he happily tells people after a few glas- ses Urtal. But that was before he began studying the forgotten arts of artifact-crafting, and came across the legend of Oromal the Suppressor &ndash; and the lindworm skin he created; a skin that is said to provide hypnotic powers. Having searched for a long time, Sikander found proof that Oromal had been laid to rest in what is today known as Salindra&rsquo;s Hope and that, if Sikander was correct, the mighty skin would still be buried with its maker. With the artifact in his possession, Sikander hopes to contribute to reestablishing the art of artifact-crafting within Ordo Magica. He has now lost himself completely to the Fever of the Hunt and will, in his obsession, mistake anything for hostility. At the start of the adventure, Sikander murders Handelo, as the paranoid former Master of the Order considers him to be his number one rival.</p>",
			"personalGoal": ""
		},
		"Sister Losadra": {
			"name": "Sister Losadra",
			"race": "人類 (安珀利亞)",
			"occupation": "The Whip of Prios",
			"manner": "Contemptuous, self-righteous",
			"quote": "",
			"shadow": "Glaring white like annealed steel",
			"appearance": "",
			"tactics": "Losadra fights expertly with a whip in one  hand and a flail in the other. She uses the whip  to pull an enemy toward her for an automatic hit  which deals +3 damage; when fighting multiple  enemies in melee combat she instead swings the  flail at everyone within range. She will only use her  subduing ability in situations where she is outnumbered and feels a need to level the playing field.",
			"background": "<p>Losadra has devoted her life to the hunt for the Lawgiver&rsquo;s enemies. In the final stages of the Great War, she assisted in the interrogation of suspected collaborators and learned all about the Eternal Night &ndash; how it can hide within anyone, even those who do not know their own darkness; and how it can always be exposed, brought to light, and if not banished then at least burned from the flesh. Now, at forty years of age, despite her modest background, she has emerged as the undisputed leader of the Whip of Prios. No one has exposed more heretics or darkness-worshiping cults than she has. Her recipe for success is simple: to never let oneself be fooled by the deceptions of the Eternal Night; to trust in one&rsquo;s faith, regardless of desperate appeals, tears and pleas of innocence! And should one&rsquo;s faith be in error, it is a price worth paying &ndash; better an innocent sent to Prios than a deceitful heretic living under His heaven.</p>",
			"personalGoal": ""
		},
		"Terato's Cultists": {
			"name": "Terato's Cultists",
			"race": "Human",
			"occupation": "",
			"manner": "Fanatic gaze",
			"quote": "",
			"shadow": "Braided silver and/or green with a few black strands",
			"appearance": null,
			"tactics": null,
			"background": "<p>Terato&rsquo;s Dawn in Kastor is comprised of Initiated Cultists and Enlightened Cultists, of which the latter command the former and report to Kagliostro. All Enlightened Cultists have willingly subjected them- selves to Terato&rsquo;s Draught, and survived with holy marks (see Elixir: Terato&rsquo;s Draught, Boon: Dark Blood and Burden: Bestial).</p>",
			"personalGoal": ""
		},
		"Terr": {
			"name": "特爾",
			"race": "人類 (安珀利亞)",
			"occupation": "靈能者",
			"manner": "口吃、畏縮",
			"quote": "“我不怪。”",
			"shadow": "特爾似乎被嚴重腐化了（溫暖的黑色像天鵝絨斗篷的內部；腐化：6），因為鮑梅洛/歐達可把他的暗影給了這個男孩。",
			"appearance": "",
			"tactics": "特爾不會戰鬥，除非是為了自衛。",
			"background": "",
			"personalGoal": ""
		},
		"The Chief’s Bodyguard": {
			"name": "酋長保鏢",
			"race": "地精",
			"occupation": "",
			"manner": "立正，只有眼睛在動",
			"quote": "“服務至死。”",
			"shadow": "帶苔蘚的綠色，有黃色和棕色的斑點，像秋天的落葉（腐化：2）",
			"appearance": "<p>這些異常能幹的地精（和PC一樣多）是加巴酋長的私人衛隊，他們從不離開他身邊。他們非常忠誠，為了保住加巴和涅格的性命，他們會戰鬥到死。</p>",
			"tactics": "保鏢們在敵人和他們的首領之間圍成一個半圓進行戰鬥，他們會一直戰鬥到他們倒下。",
			"background": "",
			"personalGoal": ""
		},
		"The Creeping Darkness": {
			"name": "蠕行的黑暗",
			"race": "獨特",
			"occupation": "",
			"manner": "無聲的黑暗運動伴隨著冰冷的寒冷",
			"quote": "",
			"shadow": "吞噬世界的全然黑暗（徹底腐化）",
			"appearance": "<p>蠕行的黑暗是一個活的實體，表現為一個移動的黑暗領域。它極度寒冷，渴求生命—正如祕法學會總部的殘骸所見證的那樣。黑暗在哪裡移動，它的身後就會出現50步寬的死亡條紋，彷彿一切都死了。因為即使是最小的微生物也會滅亡，所以在新的孢子和細菌到達之前，條紋不會開始分解，例如隨風或由遊蕩的動物攜帶。</p>",
			"tactics": "蠕行的黑暗依靠的是其麻痺和消耗生命的力量（怪物特質[墓寒]）。它的唯一目標是與穢腐汙水結合，其他都是次要的。如果寒冷不足以接近奇物，它就會在本地顯現，用物理黑暗的尖刺刺向敵人。",
			"background": "",
			"personalGoal": ""
		},
		"The Eternal Hunter": {
			"name": "The Eternal Hunter",
			"race": "Elf (winter elf)",
			"occupation": "",
			"manner": "Careless and playful even in the  midst of carnage",
			"quote": "",
			"shadow": "Greyish yellow like winter leaves,  with broad streaks of black threatening to become dominant",
			"appearance": null,
			"tactics": "The Eternal Hunter moves among  the death dancers, shooting single arrows for  encouragement. When a worthy opponent  emerges, the hunter begins his own, personal  hunt. He alternates between firing deadly arrows  and trying to charm and drink warm, delightful  blood from the victim, saturated with the sublime  taste of desperation and fear. As soon as Gylta’s  herd becomes occupied with fighting the death  dancers he takes the opportunity to commence  his fight against the forest goddess.",
			"background": "<p>The Eternal Hunter was once a master huntsman who fought for the Iron Pact against the growing darkness of Symbaroum. He watched Symbaroum fall, and saw the elves plant the first seeds of Davokar. When the trees were still young he entered the winter of his life, and emerged from it as the Eternal Hunter. But something went horribly wrong. Maybe there was once a higher purpose to the hunt, to clear the way for new life to rise. Or perhaps the lingering darkness was already taking root at the start of his winter, and the hunt had a purpose in itself: killing for sport and pleasure. His stay in the Serpent Temple has not alleviated matters, and what hope there once was for the hunter to find harmony is now gone. The hunt is all that r</p>",
			"personalGoal": "<p>The hunt is all that remains. The first step is to heal his wounds. Step two is to arrange a new Wild Hunt using any creature he can ensnare with the entrancing Dance of Death. With the Elder Sow Gylta put down, Davokar will experience a new hunt, wilder and darker than ever before.</p>"
		},
		"The Kings Skull": {
			"name": "國王的頭骨",
			"race": "",
			"occupation": "",
			"manner": "",
			"quote": "",
			"shadow": "頭骨滲出黑氣，彷彿是一個溢出液體黑暗的聖杯。 (徹底腐化)。",
			"appearance": "<p>在黑暗中的一個基座上，躺著一個木乃伊式的頭骨，上面有一個覆蓋著綠繡的王冠，與骨頭融為一體。擁有[靈視]或任何秘術力量的玩家可以通過[察覺]檢定，在戰鬥的聲音中聽到一個低沉、磨人的聲音。這些話無法理解，但卻能激起血液中的火焰。如果聽到這個聲音的人具有博學（大師）的能力，並且通過了[智識]檢定，他或她就知道這個聲音是用古老的辛巴爾語說的，並且重複著同樣的短語。「給我血，給我受害者，證明你有資格為之服務。」當戰鬥結束後，頭骨就會沉寂下來。</p>",
			"tactics": "<p>頭骨通過每回合對玩家角色使用[意志操縱]秘術來參與戰鬥。國王的目的是只讓一個生物存活下來，希望存活下來的人能夠抓住頭骨，並企圖附身影響他。</p>",
			"background": null,
			"personalGoal": ""
		},
		"The Templars": {
			"name": "The Templars",
			"race": "人類 (安珀利亞)",
			"occupation": "",
			"manner": "Calmly fanatical",
			"quote": "",
			"shadow": "Golden yellow with streaks and  blotches of crimson",
			"appearance": "<p>All three of the knights are highborn; they are proud, eloquent, and imposing. But there is also fire in their eyes, a passion most nobles do not possess. If the characters seek them out directly after the battle, one of them is knocked out and the other two have only 4 Toughness left.</p>",
			"tactics": "The knights of Dead Prios fights with restrained fury and stay together to avoid being flanked;  they will unleash their berserker rage and attack  with full force if the battle turns against them.",
			"background": "",
			"personalGoal": ""
		},
		"The Warrior Monks": {
			"name": "The Warrior Monks",
			"race": "Human (the Order)",
			"occupation": "",
			"manner": "Serious, vigilant",
			"quote": "",
			"shadow": "A dull, pale yellow, like unpolished brass",
			"appearance": "<p>Both Orun and Adelena belong to the Order of the Executioner and were sent by the leader of the Order&rsquo;s Land, the Theologist, to free Elsana. They are willing to die to complete their mission, convinced that Elsana&rsquo;s freedom will please all the Young Gods, including the Executioner, as well as the long-suffering population of their realm. The only person who could persuade them to lay down their axes is Elsana herself.</p>",
			"tactics": "The monks will focus on protecting  Elsana. If one of them is badly injured, he or she  may withdraw from the battle to recuperate  (Recovery). ",
			"background": "",
			"personalGoal": ""
		},
		"The White Spider Xanathâ": {
			"name": "白蜘蛛夏那塔",
			"race": "蜘蛛",
			"occupation": "",
			"manner": "嘶嘶聲，靜止不動",
			"quote": "“命運之線在我編織未來時顫抖。”",
			"shadow": "閃耀著耀眼的光芒（腐化：0）",
			"appearance": "<p>在外觀上，她是一隻骨色的蜘蛛，身體像食人魔一樣大，身上佈滿了無數次戰鬥留下的更蒼白的傷痕。通常情況下，她的複眼位於離地面約一米高的地方，但她的長腿使她有可能將身體抬得很高，甚至可以俯視最高的冒險者。她用心靈感應，用圖像說話，意味著她無視任何語言障礙。她也能用語言表達自己，但只能以刺耳的嘶嘶聲表達，而且充其量是一種早已被遺忘的蠻族方言。</p>",
			"tactics": "夏那塔很狡猾，在很多方面都有計劃。她的目標是奪取穢腐汙水。如果她不得不戰鬥，她會用她那幾乎是活的網來抓住她的敵人，然後用有毒的唾液攻擊他們。如果這還不夠，她會退縮並改變策略。她只有在被逼到牆角時，才會把咬人作為最後的手段。",
			"background": "<p>當辛柏隆還健在的時候，夏那塔就已經很古老了，這個可敬的蜘蛛獸發現自己被辛巴爾強大的王子們追殺。她逃到了地下世界，但即使在那裡她也沒有得到安寧，這就是為什麼她用秘術穿越到了靈魂世界，直到最近她還留在那裡。達沃卡地區的大多數事物對她來說都是新的。森林比她記憶中的要大得多、密得多，安珀利亞人當然也是新認識的。但很多東西都沒有變化，她的網因她想控制的大規模事件而顫抖。夏那塔有一個俏皮的性格，喜歡用謎語來迷惑和逗樂。關於她自己，她很神秘，但她說（無論真假）她是蜘蛛神奧羅克（Oroke）的女兒，是臭名昭著的蜘蛛王的母親。</p>",
			"personalGoal": ""
		},
		"Tonsel": {
			"name": "唐賽爾",
			"race": "人類 (安珀利亞)",
			"occupation": "書記員",
			"manner": "堅持嘗試吹口哨，即使他不能發出聲音",
			"quote": "",
			"shadow": "帶有綠色底色的銀色，像波光粼粼的海洋（腐化：0）",
			"appearance": "",
			"tactics": "如果唐賽爾被嘲諷攻擊，他會向他認為是最大的反派發起攻擊，然後拳打腳踢，直到他自己倒下。 如果他隨後被治癒並恢復意識，他將重新開始：反派必須受到懲罰。",
			"background": "瘋狂的書記員唐賽爾是祕法學會的探險隊中唯一在蠕行的黑暗來訪中倖存下來的成員。書記員在最後一刻被白蜘蛛夏那塔救了下來，她從弧形牆上的洞裡擠了出來，希望唐賽爾能協助她尋找穢腐汙水。不幸的是，書記員的心理並沒有在與黑暗的交鋒中倖存下來。他喋喋不休地談論他的 “閃亮的保護者”，以及她如何 “從天上爬下來，用她神聖的咬合力拯救我”。為了表達他永恆的感激和奉獻，他對保護者和普里奧斯的榮耀進行了各種晦澀的感恩儀式，把普里奧斯的太陽畫成了一個非常像蜘蛛的東西...",
			"personalGoal": ""
		},
		"Uwulgas": {
			"name": "Uwulgas",
			"race": "Ogres",
			"occupation": "",
			"manner": "Glaring arrogantly, muttering",
			"quote": "",
			"shadow": "Crimson red",
			"appearance": "<p>The goblins&rsquo; &rdquo;own&rdquo; ogres obey no-one but Harbassas.</p>",
			"tactics": null,
			"background": null,
			"personalGoal": ""
		},
		"Veterans": {
			"name": "Veterans",
			"race": "人類 (安珀利亞)",
			"occupation": "",
			"manner": "Excessively proud",
			"quote": "",
			"shadow": "Scratched and dented copper",
			"appearance": "",
			"tactics": "The veterans have seen plenty of combat  and will not back down from a fight. But they lack  finesse, and might well surrender – cursing bitterly  – if they believe the opposition to be too great.",
			"background": "<p>Segri Elderra persuades 15 newly-arrived war veterans to join her in battle against the heretics, by promising to vouch for them as they apply for a Queen&rsquo;s Permit. Given the Templars&rsquo; secession from the Curia this will hardly make any difference, but the veterans do not know that. They will do everything they can to earn the noble woman&rsquo;s recommendation!</p>",
			"personalGoal": ""
		}
	}
}
